TOOL_CHAMBER,lam P/N,Serial Number,REMOVAL_DATE,start_time,end_time,pred_start_time,pred_end_time,sample,Removal,Removal_probability_MLP,Removal_prediction_MLP
ETX29300_PM2,000-300101-956,181120A05005,2019-10-17 02:48:49,2019-08-30 12:00:00,2019-09-06 12:00:00,9/9/19 12:00,9/10/19 12:00,modelling,0,0.00,0
ETX29300_PM2,000-300101-956,181120A05005,2019-10-17 02:48:49,2019-08-31 12:00:00,2019-09-07 12:00:00,9/10/19 12:00,9/11/19 12:00,modelling,0,0.00,0
ETX29300_PM2,000-300101-956,181120A05005,2019-10-17 02:48:49,2019-09-01 12:00:00,2019-09-08 12:00:00,9/11/19 12:00,9/12/19 12:00,modelling,0,0.02,0
ETX29300_PM2,000-300101-956,181120A05005,2019-10-17 02:48:49,2019-09-02 12:00:00,2019-09-09 12:00:00,9/12/19 12:00,9/13/19 12:00,validation,0,0.01,0
ETX29300_PM2,000-300101-956,181120A05005,2019-10-17 02:48:49,2019-09-03 12:00:00,2019-09-10 12:00:00,9/13/19 12:00,9/14/19 12:00,validation,0,0.00,0
ETX29300_PM2,000-300101-956,181120A05005,2019-10-17 02:48:49,2019-09-04 12:00:00,2019-09-11 12:00:00,9/14/19 12:00,9/15/19 12:00,validation,0,0.00,0
ETX29300_PM2,000-300101-956,181120A05005,2019-10-17 02:48:49,2019-09-05 12:00:00,2019-09-12 12:00:00,9/15/19 12:00,9/16/19 12:00,modelling,0,0.01,0
ETX29300_PM2,000-300101-956,181120A05005,2019-10-17 02:48:49,2019-09-06 12:00:00,2019-09-13 12:00:00,9/16/19 12:00,9/17/19 12:00,modelling,0,0.00,0
ETX29300_PM2,000-300101-956,181120A05005,2019-10-17 02:48:49,2019-09-07 12:00:00,2019-09-14 12:00:00,9/23/19 12:00,9/24/19 12:00,modelling,0,0.02,0
ETX29300_PM2,000-300101-956,181120A05005,2019-10-17 02:48:49,2019-09-08 12:00:00,2019-09-15 12:00:00,9/24/19 12:00,9/25/19 12:00,validation,0,0.00,0
ETX29300_PM2,000-300101-956,181120A05005,2019-10-17 02:48:49,2019-09-09 12:00:00,2019-09-16 12:00:00,9/25/19 12:00,9/26/19 12:00,validation,0,0.00,0
ETX29300_PM2,000-300101-956,181120A05005,2019-10-17 02:48:49,2019-09-10 12:00:00,2019-09-17 12:00:00,9/26/19 12:00,9/27/19 12:00,modelling,0,0.00,0
ETX29300_PM2,000-300101-956,181120A05005,2019-10-17 02:48:49,2019-09-11 12:00:00,2019-09-24 12:00:00,9/27/19 12:00,9/28/19 12:00,modelling,0,0.00,0
ETX29300_PM2,000-300101-956,181120A05005,2019-10-17 02:48:49,2019-09-12 12:00:00,2019-09-25 12:00:00,9/28/19 12:00,9/29/19 12:00,modelling,0,0.00,0
ETX29300_PM2,000-300101-956,181120A05005,2019-10-17 02:48:49,2019-09-13 12:00:00,2019-09-26 12:00:00,9/29/19 12:00,9/30/19 12:00,modelling,0,0.02,0
ETX29300_PM2,000-300101-956,181120A05005,2019-10-17 02:48:49,2019-09-14 12:00:00,2019-09-27 12:00:00,9/30/19 12:00,10/1/19 12:00,modelling,0,0.01,0
ETX29300_PM2,000-300101-956,181120A05005,2019-10-17 02:48:49,2019-09-15 12:00:00,2019-09-28 12:00:00,10/1/19 12:00,10/2/19 12:00,validation,0,0.00,0
ETX29300_PM2,000-300101-956,181120A05005,2019-10-17 02:48:49,2019-09-16 12:00:00,2019-09-29 12:00:00,10/2/19 12:00,10/3/19 12:00,modelling,0,0.00,0
ETX29300_PM2,000-300101-956,181120A05005,2019-10-17 02:48:49,2019-09-23 12:00:00,2019-09-30 12:00:00,10/3/19 12:00,10/4/19 12:00,modelling,0,0.00,0
ETX29300_PM2,000-300101-956,181120A05005,2019-10-17 02:48:49,2019-09-24 12:00:00,2019-10-01 12:00:00,10/15/19 12:00,10/16/19 12:00,modelling,0,0.00,0
ETX29300_PM2,000-300101-956,181120A05005,2019-10-17 02:48:49,2019-09-25 12:00:00,2019-10-02 12:00:00,10/17/19 12:00,10/18/19 12:00,modelling,1,0.92,1
ETX29300_PM4,000-300101-956,180420a01005,2020-01-06 20:55:01,2019-11-15 12:00:00,2019-11-22 12:00:00,11/25/19 12:00,11/26/19 12:00,modelling,0,0.02,0
ETX29300_PM4,000-300101-956,180420a01005,2020-01-06 20:55:01,2019-11-16 12:00:00,2019-11-23 12:00:00,11/26/19 12:00,11/27/19 12:00,modelling,0,0.00,0
ETX29300_PM4,000-300101-956,180420a01005,2020-01-06 20:55:01,2019-11-17 12:00:00,2019-11-24 12:00:00,11/27/19 12:00,11/28/19 12:00,modelling,0,0.02,0
ETX29300_PM4,000-300101-956,180420a01005,2020-01-06 20:55:01,2019-11-18 12:00:00,2019-11-25 12:00:00,11/28/19 12:00,11/29/19 12:00,validation,0,0.03,0
ETX29300_PM4,000-300101-956,180420a01005,2020-01-06 20:55:01,2019-11-19 12:00:00,2019-11-26 12:00:00,11/29/19 12:00,11/30/19 12:00,modelling,0,0.02,0
ETX29300_PM4,000-300101-956,180420a01005,2020-01-06 20:55:01,2019-11-20 12:00:00,2019-11-27 12:00:00,11/30/19 12:00,12/1/19 12:00,modelling,0,0.00,0
ETX29300_PM4,000-300101-956,180420a01005,2020-01-06 20:55:01,2019-11-21 12:00:00,2019-11-28 12:00:00,12/1/19 12:00,12/2/19 12:00,validation,0,0.00,0
ETX29300_PM4,000-300101-956,180420a01005,2020-01-06 20:55:01,2019-11-22 12:00:00,2019-11-29 12:00:00,12/2/19 12:00,12/3/19 12:00,validation,0,0.00,0
ETX29300_PM4,000-300101-956,180420a01005,2020-01-06 20:55:01,2019-11-23 12:00:00,2019-11-30 12:00:00,12/3/19 12:00,12/4/19 12:00,modelling,0,0.00,0
ETX29300_PM4,000-300101-956,180420a01005,2020-01-06 20:55:01,2019-11-24 12:00:00,2019-12-01 12:00:00,12/4/19 12:00,12/5/19 12:00,modelling,0,0.00,0
ETX29300_PM4,000-300101-956,180420a01005,2020-01-06 20:55:01,2019-11-25 12:00:00,2019-12-02 12:00:00,12/5/19 12:00,12/6/19 12:00,validation,0,0.02,0
ETX29300_PM4,000-300101-956,180420a01005,2020-01-06 20:55:01,2019-11-26 12:00:00,2019-12-03 12:00:00,12/6/19 12:00,12/7/19 12:00,modelling,0,0.00,0
ETX29300_PM4,000-300101-956,180420a01005,2020-01-06 20:55:01,2019-11-27 12:00:00,2019-12-04 12:00:00,12/7/19 12:00,12/8/19 12:00,modelling,0,0.00,0
ETX29300_PM4,000-300101-956,180420a01005,2020-01-06 20:55:01,2019-11-28 12:00:00,2019-12-05 12:00:00,12/8/19 12:00,12/9/19 12:00,modelling,0,0.00,0
ETX29300_PM4,000-300101-956,180420a01005,2020-01-06 20:55:01,2019-11-29 12:00:00,2019-12-06 12:00:00,12/9/19 12:00,12/10/19 12:00,validation,0,0.00,0
ETX29300_PM4,000-300101-956,180420a01005,2020-01-06 20:55:01,2019-11-30 12:00:00,2019-12-07 12:00:00,12/11/19 12:00,12/12/19 12:00,modelling,0,0.04,0
ETX29300_PM4,000-300101-956,180420a01005,2020-01-06 20:55:01,2019-12-01 12:00:00,2019-12-08 12:00:00,12/12/19 12:00,12/13/19 12:00,modelling,0,0.06,0
ETX29300_PM4,000-300101-956,180420a01005,2020-01-06 20:55:01,2019-12-02 12:00:00,2019-12-09 12:00:00,12/13/19 12:00,12/14/19 12:00,validation,0,0.01,0
ETX29300_PM4,000-300101-956,180420a01005,2020-01-06 20:55:01,2019-12-03 12:00:00,2019-12-10 12:00:00,12/14/19 12:00,12/15/19 12:00,validation,0,0.00,0
ETX29300_PM4,000-300101-956,180420a01005,2020-01-06 20:55:01,2019-12-04 12:00:00,2019-12-12 12:00:00,12/19/19 12:00,12/20/19 12:00,validation,0,0.01,0
ETX29300_PM4,000-300101-956,180420a01005,2020-01-06 20:55:01,2019-12-05 12:00:00,2019-12-13 12:00:00,12/22/19 12:00,12/23/19 12:00,modelling,0,0.01,0
ETX29300_PM4,000-300101-956,180420a01005,2020-01-06 20:55:01,2019-12-06 12:00:00,2019-12-14 12:00:00,1/6/20 12:00,1/7/20 12:00,modelling,1,0.83,1
ETX29300_PM5,000-300101-956,190220A06002,2020-01-31 06:52:31,2019-12-03 12:00:00,2019-12-14 12:00:00,12/17/19 12:00,12/18/19 12:00,modelling,0,0.00,0
ETX29300_PM5,000-300101-956,190220A06002,2020-01-31 06:52:31,2019-12-04 12:00:00,2019-12-15 12:00:00,12/18/19 12:00,12/19/19 12:00,modelling,0,0.00,0
ETX29300_PM5,000-300101-956,190220A06002,2020-01-31 06:52:31,2019-12-09 12:00:00,2019-12-16 12:00:00,12/19/19 12:00,12/20/19 12:00,modelling,0,0.00,0
ETX29300_PM5,000-300101-956,190220A06002,2020-01-31 06:52:31,2019-12-10 12:00:00,2019-12-17 12:00:00,12/20/19 12:00,12/21/19 12:00,validation,0,0.00,0
ETX29300_PM5,000-300101-956,190220A06002,2020-01-31 06:52:31,2019-12-11 12:00:00,2019-12-18 12:00:00,12/21/19 12:00,12/22/19 12:00,modelling,0,0.00,0
ETX29300_PM5,000-300101-956,190220A06002,2020-01-31 06:52:31,2019-12-12 12:00:00,2019-12-19 12:00:00,12/22/19 12:00,12/23/19 12:00,modelling,0,0.00,0
ETX29300_PM5,000-300101-956,190220A06002,2020-01-31 06:52:31,2019-12-13 12:00:00,2019-12-20 12:00:00,12/23/19 12:00,12/24/19 12:00,modelling,0,0.00,0
ETX29300_PM5,000-300101-956,190220A06002,2020-01-31 06:52:31,2019-12-14 12:00:00,2019-12-21 12:00:00,12/24/19 12:00,12/25/19 12:00,modelling,0,0.00,0
ETX29300_PM5,000-300101-956,190220A06002,2020-01-31 06:52:31,2019-12-15 12:00:00,2019-12-22 12:00:00,12/25/19 12:00,12/26/19 12:00,modelling,0,0.00,0
ETX29300_PM5,000-300101-956,190220A06002,2020-01-31 06:52:31,2019-12-16 12:00:00,2019-12-23 12:00:00,12/26/19 12:00,12/27/19 12:00,modelling,0,0.00,0
ETX29300_PM5,000-300101-956,190220A06002,2020-01-31 06:52:31,2019-12-17 12:00:00,2019-12-24 12:00:00,12/27/19 12:00,12/28/19 12:00,validation,0,0.00,0
ETX29300_PM5,000-300101-956,190220A06002,2020-01-31 06:52:31,2019-12-18 12:00:00,2019-12-25 12:00:00,12/28/19 12:00,12/29/19 12:00,validation,0,0.00,0
ETX29300_PM5,000-300101-956,190220A06002,2020-01-31 06:52:31,2019-12-19 12:00:00,2019-12-26 12:00:00,12/29/19 12:00,12/30/19 12:00,modelling,0,0.00,0
ETX29300_PM5,000-300101-956,190220A06002,2020-01-31 06:52:31,2019-12-20 12:00:00,2019-12-27 12:00:00,12/30/19 12:00,12/31/19 12:00,modelling,0,0.02,0
ETX29300_PM5,000-300101-956,190220A06002,2020-01-31 06:52:31,2019-12-21 12:00:00,2019-12-28 12:00:00,12/31/19 12:00,1/1/20 12:00,modelling,0,0.00,0
ETX29300_PM5,000-300101-956,190220A06002,2020-01-31 06:52:31,2019-12-22 12:00:00,2019-12-29 12:00:00,1/1/20 12:00,1/2/20 12:00,modelling,0,0.00,0
ETX29300_PM5,000-300101-956,190220A06002,2020-01-31 06:52:31,2019-12-23 12:00:00,2019-12-30 12:00:00,1/2/20 12:00,1/3/20 12:00,modelling,0,0.00,0
ETX29300_PM5,000-300101-956,190220A06002,2020-01-31 06:52:31,2019-12-24 12:00:00,2019-12-31 12:00:00,1/3/20 12:00,1/4/20 12:00,validation,0,0.00,0
ETX29300_PM5,000-300101-956,190220A06002,2020-01-31 06:52:31,2019-12-25 12:00:00,2020-01-01 12:00:00,1/5/20 12:00,1/6/20 12:00,validation,0,0.00,0
ETX29300_PM5,000-300101-956,190220A06002,2020-01-31 06:52:31,2019-12-26 12:00:00,2020-01-02 12:00:00,1/6/20 12:00,1/7/20 12:00,modelling,0,0.00,0
ETX29300_PM5,000-300101-956,190220A06002,2020-01-31 06:52:31,2019-12-27 12:00:00,2020-01-03 12:00:00,1/31/20 12:00,2/1/20 12:00,modelling,1,1.00,1
ETX29300_PM4,000-300101-956,181212A02009,2019-05-19 08:31:23,2019-04-20 12:00:00,2019-04-27 12:00:00,4/30/19 12:00,5/1/19 12:00,modelling,0,0.00,0
ETX29300_PM4,000-300101-956,181212A02009,2019-05-19 08:31:23,2019-04-21 12:00:00,2019-04-28 12:00:00,5/1/19 12:00,5/2/19 12:00,modelling,0,0.00,0
ETX29300_PM4,000-300101-956,181212A02009,2019-05-19 08:31:23,2019-04-22 12:00:00,2019-04-29 12:00:00,5/2/19 12:00,5/3/19 12:00,modelling,0,0.00,0
ETX29300_PM4,000-300101-956,181212A02009,2019-05-19 08:31:23,2019-04-23 12:00:00,2019-04-30 12:00:00,5/3/19 12:00,5/4/19 12:00,modelling,0,0.00,0
ETX29300_PM4,000-300101-956,181212A02009,2019-05-19 08:31:23,2019-04-24 12:00:00,2019-05-01 12:00:00,5/4/19 12:00,5/5/19 12:00,validation,0,0.00,0
ETX29300_PM4,000-300101-956,181212A02009,2019-05-19 08:31:23,2019-04-25 12:00:00,2019-05-02 12:00:00,5/5/19 12:00,5/6/19 12:00,validation,0,0.00,0
ETX29300_PM4,000-300101-956,181212A02009,2019-05-19 08:31:23,2019-04-26 12:00:00,2019-05-03 12:00:00,5/6/19 12:00,5/7/19 12:00,modelling,0,0.00,0
ETX29300_PM4,000-300101-956,181212A02009,2019-05-19 08:31:23,2019-04-27 12:00:00,2019-05-04 12:00:00,5/7/19 12:00,5/8/19 12:00,modelling,0,0.00,0
ETX29300_PM4,000-300101-956,181212A02009,2019-05-19 08:31:23,2019-04-28 12:00:00,2019-05-05 12:00:00,5/8/19 12:00,5/9/19 12:00,validation,0,0.00,0
ETX29300_PM4,000-300101-956,181212A02009,2019-05-19 08:31:23,2019-04-29 12:00:00,2019-05-06 12:00:00,5/9/19 12:00,5/10/19 12:00,modelling,0,0.00,0
ETX29300_PM4,000-300101-956,181212A02009,2019-05-19 08:31:23,2019-04-30 12:00:00,2019-05-07 12:00:00,5/10/19 12:00,5/11/19 12:00,modelling,0,0.00,0
ETX29300_PM4,000-300101-956,181212A02009,2019-05-19 08:31:23,2019-05-01 12:00:00,2019-05-08 12:00:00,5/11/19 12:00,5/12/19 12:00,modelling,0,0.00,0
ETX29300_PM4,000-300101-956,181212A02009,2019-05-19 08:31:23,2019-05-02 12:00:00,2019-05-09 12:00:00,5/12/19 12:00,5/13/19 12:00,validation,0,0.00,0
ETX29300_PM4,000-300101-956,181212A02009,2019-05-19 08:31:23,2019-05-03 12:00:00,2019-05-10 12:00:00,5/13/19 12:00,5/14/19 12:00,validation,0,0.00,0
ETX29300_PM4,000-300101-956,181212A02009,2019-05-19 08:31:23,2019-05-04 12:00:00,2019-05-11 12:00:00,5/14/19 12:00,5/15/19 12:00,modelling,0,0.00,0
ETX29300_PM4,000-300101-956,181212A02009,2019-05-19 08:31:23,2019-05-05 12:00:00,2019-05-12 12:00:00,5/15/19 12:00,5/16/19 12:00,modelling,0,0.00,0
ETX29300_PM4,000-300101-956,181212A02009,2019-05-19 08:31:23,2019-05-06 12:00:00,2019-05-13 12:00:00,5/16/19 12:00,5/17/19 12:00,modelling,0,0.00,0
ETX29300_PM4,000-300101-956,181212A02009,2019-05-19 08:31:23,2019-05-07 12:00:00,2019-05-14 12:00:00,5/17/19 12:00,5/18/19 12:00,modelling,0,0.00,0
ETX29300_PM4,000-300101-956,181212A02009,2019-05-19 08:31:23,2019-05-08 12:00:00,2019-05-15 12:00:00,5/18/19 12:00,5/19/19 12:00,modelling,0,0.00,0
